[{
	"id": "palma-calvia",
	"name": "Palma - Calvià",
	"island": "mallorca"
}, {
	"id": "serra-de-tramuntana",
	"name": "Serra de Tramuntana",
	"island": "mallorca"
}, {
	"id": "raiguer-i-pla",
	"name": "Raiguer i Pla ",
	"island ": "mallorca "
}, {
	"id ": "costa - nord ",
	"name ": "Costa Nord ",
	"island ": "mallorca "
}, {
	"id ": "serra - llevant ",
	"name ": "Serra Llevant ",
	"island ": "mallorca "
}, {
	"id ": "migjorn ",
	"name ": "Migjorn ",
	"island ": "mallorca "
}, {
	"id ": "menorca ",
	"name ": "Menorca ",
	"island ": "menorca "
}, {
	"id ": "eivissa ",
	"name ": "Eivissa ",
	"island ": "ibiza "
}, {
	"id ": "formentera ",
	"name ": "Formentera ",
	"island ": "formentera"
}]
